{
  "project_info": {
    "project_number": "1090236220492",
    "firebase_url": "https://pes11-mobilitat.firebaseio.com",
    "project_id": "pes11-mobilitat",
    "storage_bucket": "pes11-mobilitat.appspot.com"
  },
  "client": [
    {
      "client_info": {
        "mobilesdk_app_id": "1:1090236220492:android:1c8a52f4132f91431ae0e9",
        "android_client_info": {
          "package_name": "com.example.aidbee_register"
        }
      },
      "oauth_client": [
        {
          "client_id": "1090236220492-8a7sb3vpq8adstgt0q5a9tg3pcii530u.apps.googleusercontent.com",
          "client_type": 1,
          "android_info": {
            "package_name": "com.example.aidbee_register",
            "certificate_hash": "82ac61ef1c508c62b5d8b683aeab3c58762d38d4"
          }
        },
        {
          "client_id": "1090236220492-1gv1mtqi3irlhdrto01u01asoiue00is.apps.googleusercontent.com",
          "client_type": 3
        }
      ],
      "api_key": [
        {
          "current_key": "AIzaSyCJ1IoJ_RPv78dbYQxYTfqZSr0hxgqhRss"
        }
      ],
      "services": {
        "appinvite_service": {
          "other_platform_oauth_client": [
            {
              "client_id": "1090236220492-1gv1mtqi3irlhdrto01u01asoiue00is.apps.googleusercontent.com",
              "client_type": 3
            }
          ]
        }
      }
    }
  ],
  "configuration_version": "1"
}